<?xml version="1.0" encoding="UTF-8"?>
<svg width="35px" height="35px" viewBox="0 0 35 35" version="1.1" xmlns="http://www.w3.org/2000/svg" xmlns:xlink="http://www.w3.org/1999/xlink">
    <!-- Generator: sketchtool 48.2 (47327) - http://www.bohemiancoding.com/sketch -->
    <title>6B035826-A5D9-49AB-9744-E0F711665861</title>
    <desc>Created with sketchtool.</desc>
    <defs></defs>
    <g id="smallicon/e-mal" stroke="none" stroke-width="1" fill="none" fill-rule="evenodd">
        <rect id="Rectangle-11" stroke="#172444" stroke-width="2" x="7" y="10" width="22" height="15"></rect>
        <polygon id="Rectangle-11-Copy" fill="#132033" fill-rule="nonzero" transform="translate(18.020815, 9.020815) rotate(135.000000) translate(-18.020815, -9.020815) " points="24.5208153 2.52081528 24.5208153 15.5208153 26.5208153 17.5208153 26.5208153 0.52081528 9.52081528 0.52081528 11.5208153 2.52081528"></polygon>
    </g>
</svg>