<?xml version="1.0" encoding="UTF-8"?>
<svg width="27px" height="22px" viewBox="0 0 27 22" version="1.1" xmlns="http://www.w3.org/2000/svg" xmlns:xlink="http://www.w3.org/1999/xlink">
    <!-- Generator: sketchtool 48.2 (47327) - http://www.bohemiancoding.com/sketch -->
    <title>C05F7F3E-C29D-4631-8ACD-224F070A9D5E</title>
    <desc>Created with sketchtool.</desc>
    <defs></defs>
    <g id="icons/growing" stroke="none" stroke-width="1" fill="none" fill-rule="evenodd">
        <g id="growing-icon" transform="translate(1.000000, 0.000000)" stroke="#064CBE" stroke-width="3">
            <path d="M23,0 L23,22" id="Path-9"></path>
            <path d="M16,7 L16,22" id="Path-9-Copy"></path>
            <path d="M8,12 L8,22" id="Path-9-Copy-2"></path>
            <path d="M1,15 L1,22" id="Path-9-Copy-3"></path>
        </g>
    </g>
</svg>