<?xml version="1.0" encoding="UTF-8"?>
<svg width="32px" height="32px" viewBox="0 0 32 32" version="1.1" xmlns="http://www.w3.org/2000/svg" xmlns:xlink="http://www.w3.org/1999/xlink">
    <!-- Generator: sketchtool 48.2 (47327) - http://www.bohemiancoding.com/sketch -->
    <title>381E5654-1BC8-4AEE-8EEB-17C9BBEDD712</title>
    <desc>Created with sketchtool.</desc>
    <defs></defs>
    <g id="cryptocions/neo" stroke="none" stroke-width="1" fill="none" fill-rule="evenodd">
        <g id="NEO-alt" transform="translate(3.000000, 1.000000)" fill="#FFFFFF" fill-rule="nonzero">
            <polygon id="Shape" points="0 6 11 10.9692827 11 31 0 26.0307173"></polygon>
            <polygon id="Shape" points="15.4012739 0 26 4.83123189 10.5987261 10 0 5.16876811"></polygon>
            <polygon id="Shape" points="15 21.4434152 26 26 26 6 15 9.63215178"></polygon>
        </g>
    </g>
</svg>