<?xml version="1.0" encoding="UTF-8"?>
<svg width="32px" height="32px" viewBox="0 0 32 32" version="1.1" xmlns="http://www.w3.org/2000/svg" xmlns:xlink="http://www.w3.org/1999/xlink">
    <!-- Generator: sketchtool 48.2 (47327) - http://www.bohemiancoding.com/sketch -->
    <title>8018CF8F-87C6-449F-9931-0D9C9E1A8E17</title>
    <desc>Created with sketchtool.</desc>
    <defs></defs>
    <g id="icon/PLUS" stroke="none" stroke-width="1" fill="none" fill-rule="evenodd">
        <g id="icon/search" transform="translate(3.000000, 3.000000)" fill="#132033" fill-rule="nonzero">
            <g id="Group-2">
                <polygon id="Path-4-Copy-2" points="7.58665101e-12 15 -3.63797881e-12 12 26 12 26 15"></polygon>
                <polygon id="Path-4-Copy-3" transform="translate(13.000000, 13.500000) scale(-1, 1) rotate(90.000000) translate(-13.000000, -13.500000) " points="7.58665101e-12 15 -3.63797881e-12 12 26 12 26 15"></polygon>
            </g>
        </g>
    </g>
</svg>