<?xml version="1.0" encoding="UTF-8"?>
<svg width="150px" height="150px" viewBox="0 0 150 150" version="1.1" xmlns="http://www.w3.org/2000/svg" xmlns:xlink="http://www.w3.org/1999/xlink">
    <!-- Generator: sketchtool 48.2 (47327) - http://www.bohemiancoding.com/sketch -->
    <title>B000C434-17C3-4579-A403-29AAE9686AD9</title>
    <desc>Created with sketchtool.</desc>
    <defs></defs>
    <g id="icon/products/exchange" stroke="none" stroke-width="1" fill="none" fill-rule="evenodd">
        <g id="Group" transform="translate(0.000000, 24.000000)">
            <path d="M70.2716805,51 L41.1540335,21 L34,21 L34,4.82842712 L2.82842712,36 L34,67.1715729 L34,51 L70.2716805,51 Z" id="Combined-Shape" stroke="#064CBE" stroke-width="4"></path>
            <path d="M49.151564,51 L63.2692111,81 L87,81 L87,97.1715729 L118.171573,66 L87,34.8284271 L87,51 L49.151564,51 Z" id="Combined-Shape-Copy-2" stroke="#064CBE" stroke-width="4"></path>
            <rect id="Rectangle-10" fill="#B4C9EB" x="45" y="19" width="3" height="3"></rect>
            <rect id="Rectangle-10-Copy" fill="#B4C9EB" x="52" y="19" width="3" height="3"></rect>
            <rect id="Rectangle-10-Copy-7" fill="#B4C9EB" x="55" y="80" width="3" height="3"></rect>
            <rect id="Rectangle-10-Copy-8" fill="#B4C9EB" x="48" y="80" width="3" height="3"></rect>
            <rect id="Rectangle-10-Copy-9" fill="#B4C9EB" x="41" y="80" width="3" height="3"></rect>
        </g>
    </g>
</svg>