<?xml version="1.0" encoding="UTF-8"?>
<svg width="37px" height="27px" viewBox="0 0 37 27" version="1.1" xmlns="http://www.w3.org/2000/svg" xmlns:xlink="http://www.w3.org/1999/xlink">
    <!-- Generator: sketchtool 48.2 (47327) - http://www.bohemiancoding.com/sketch -->
    <title>20C1C535-DA9A-4C59-8191-34ABC7FB7F76</title>
    <desc>Created with sketchtool.</desc>
    <defs></defs>
    <g id="icons/education" stroke="none" stroke-width="1" fill="none" fill-rule="evenodd">
        <g id="ducation-icon" transform="translate(0.000000, -11.000000)" stroke="#064CBE">
            <path d="M14.2274448,14.2274448 L8.58584189,28.5319203 L23.4544777,23.4544777 L28.5319203,8.58584189 L14.2274448,14.2274448 Z" id="Rectangle-5-Copy" stroke-width="3" transform="translate(18.500000, 18.500000) rotate(45.000000) translate(-18.500000, -18.500000) "></path>
            <path d="M8.5,26.927051 L8.5,34.0473266 C12.1183644,35.6865476 15.6158359,36.5 19,36.5 C22.3395617,36.5 25.4995693,35.7083066 28.5,34.1172417 L28.5,26.927051 L27.354102,27.5 L9.64589803,27.5 L8.5,26.927051 Z" id="Rectangle-6" stroke-width="3"></path>
            <path d="M34,28.5 L34,31.5" id="Path-8-Copy" stroke-width="4"></path>
            <path d="M34,18 L34,28" id="Path-8" stroke-width="2"></path>
        </g>
    </g>
</svg>