<?xml version="1.0" encoding="UTF-8"?>
<svg width="45px" height="56px" viewBox="0 0 45 56" version="1.1" xmlns="http://www.w3.org/2000/svg" xmlns:xlink="http://www.w3.org/1999/xlink">
    <!-- Generator: sketchtool 48.2 (47327) - http://www.bohemiancoding.com/sketch -->
    <title>0C22F1ED-7E3A-448C-8E23-50D2855E2832</title>
    <desc>Created with sketchtool.</desc>
    <defs></defs>
    <g id="icons/notes" stroke="none" stroke-width="1" fill="none" fill-rule="evenodd">
        <g id="Notes-ico" stroke="#FFFFFF" stroke-width="3">
            <g id="Smart-Chat-ico">
                <path d="M1.5,1.5 L1.5,54.5 L43.5,54.5 L43.5,16.5889417 L37.4393398,10.0606602 L28.8786797,1.5 L1.5,1.5 Z" id="Rectangle-7"></path>
                <path d="M10,31.5 L35.1262991,31.5" id="Path-9"></path>
                <path d="M10,40.5 L27.8981857,40.5" id="Path-9-Copy-12"></path>
                <polyline id="Path-15" points="28.5 1 28.5 16.5 43.5 16.5"></polyline>
            </g>
        </g>
    </g>
</svg>